<svg xmlns="http://www.w3.org/2000/svg" width="27.638" height="18.425" viewBox="0 0 27.638 18.425">
  <path id="folder-open-solid" d="M27.479,74.944,24,80.9a3.071,3.071,0,0,1-2.652,1.524H2.16a1.152,1.152,0,0,1-.995-1.732l3.475-5.957a3.071,3.071,0,0,1,2.653-1.524H26.484A1.152,1.152,0,0,1,27.479,74.944ZM7.293,71.677H23.031v-2.3a2.3,2.3,0,0,0-2.3-2.3H13.051L9.98,64H2.3A2.3,2.3,0,0,0,0,66.3V79.644l3.314-5.682A4.622,4.622,0,0,1,7.293,71.677Z" transform="translate(0 -64)" fill="#535353"/>
</svg>
