{
  "bca_types": [
    {
      "type_of_space": "Auditorium, church and public hall",
      "op_hrs_per_yr": 2000,
      "lamp_type": ""
    },
    {
      "type_of_space": "Board room and conference room",
      "op_hrs_per_yr": 3000,
      "lamp_type": ""
    },
    {
      "type_of_space": "Carpark—general (undercover) and carpark—entry zone (first 20 m of travel)",
      "op_hrs_per_yr": 7000,
      "lamp_type": ""
    },
    {
      "type_of_space": "Common rooms, spaces and corridors in a Class 2 building",
      "op_hrs_per_yr": 7000,
      "lamp_type": ""
    },
    {
      "type_of_space": "Courtroom",
      "op_hrs_per_yr": 2000,
      "lamp_type": "T8 or T12 linear fluorescent or circular fluorescent lamp with ballast (EEI of A or electronic with no EEI marked)"
    },
    {
      "type_of_space": "Dormitory of a Class 3 building used for sleeping only or sleeping and study",
      "op_hrs_per_yr": 3000,
      "lamp_type": ""
    },
    {
      "type_of_space": "Health care – children’s ward and examination room, patient ward, all patient care areas including corridors where cyanosis lamps are used",
      "op_hrs_per_yr": 6000,
      "lamp_type": ""
    },
    {
      "type_of_space": "Laboratory—artificially lit to an ambient level of 400 lx or more ",
      "op_hrs_per_yr": 3000,
      "lamp_type": ""
    },
    {
      "type_of_space": "Library—stack and shelving area, reading room and general areas ",
      "op_hrs_per_yr": 3000,
      "lamp_type": ""
    },
    {
      "type_of_space": "Lounge area for communal use in a Class 3 building or Class 9c aged care building ",
      "op_hrs_per_yr": 7000,
      "lamp_type": ""
    },
    {
      "type_of_space": "Maintained emergency lighting ",
      "op_hrs_per_yr": 8500,
      "lamp_type": ""
    },
    {
      "type_of_space": "Museum and gallery—circulation, cleaning and service lighting ",
      "op_hrs_per_yr": 2000,
      "lamp_type": ""
    },
    {
      "type_of_space": "Office ",
      "op_hrs_per_yr": 3000,
      "lamp_type": ""
    },
    {
      "type_of_space": "A space for the serving and consumption of food or drinks to the public (ANZSIC Division 'H' - Accommodation and food services, excludes class 4513 - Catering Services)",
      "op_hrs_per_yr": 5000,
      "lamp_type": ""
    },
    {
      "type_of_space": "A space for the serving and consumption of food or drinks to the public (ANZSIC Division 'R' – Arts and Recreation Services)",
      "op_hrs_per_yr": 2000,
      "lamp_type": ""
    },
    {
      "type_of_space": "Retail space including a museum and gallery whose purpose is the sale of objects ",
      "op_hrs_per_yr": 5000,
      "lamp_type": ""
    },
    {
      "type_of_space": "School—general purpose learning areas and tutorial rooms ",
      "op_hrs_per_yr": 3000,
      "lamp_type": ""
    },
    {
      "type_of_space": "Sole-occupancy unit of a Class 3 building ",
      "op_hrs_per_yr": 3000,
      "lamp_type": ""
    },
    {
      "type_of_space": "Sole-occupancy unit of a Class 9c aged care building ",
      "op_hrs_per_yr": 6000,
      "lamp_type": ""
    },
    {
      "type_of_space": "Health and fitness centres and gymnasia operations (ANZSIC Division 'R' [9111], Membership-based only) ",
      "op_hrs_per_yr": 5100,
      "lamp_type": ""
    },
    {
      "type_of_space": "Unlisted Space: BCA Class 2 Common Areas (e.g. Apartment Building, Block of Flats)",
      "op_hrs_per_yr": 7000,
      "lamp_type": "A space in the common area of a building that is classified as Class 2 under Part 3A of the Building Code as amended from time to time "
    },
    {
      "type_of_space": "Unlisted Space: BCA Class 3 Common Areas (e.g. Corridor in a Hotel / Motel)",
      "op_hrs_per_yr": 7000,
      "lamp_type": "A space in the common area of a building that is classified as Class 3 under Part 3A of the Building Code as amended from time to time"
    },
    {
      "type_of_space": "Unlisted Space: BCA Class 3 Other Areas (e.g. Hotel / Motel or Dormitory Room)",
      "op_hrs_per_yr": 3000,
      "lamp_type": "A space in a building that is classified as Class 3 under Part 3A of the Building Code as amended from time to time (other than a space in the common area of the building)"
    },
    {
      "type_of_space": "Unlisted Space: BCA Class 5 (e.g. Office or professional services building, medical consulting rooms) ",
      "op_hrs_per_yr": 3000,
      "lamp_type": "A space in a building that is classified as Class 5 under Part 3A of the Building Code as amended from time to time "
    },
    {
      "type_of_space": "Unlisted Space: BCA Class 6 (e.g. Retail shop / Restaurant / Service station / Bar [excluding dance or live music venues])",
      "op_hrs_per_yr": 5000,
      "lamp_type": "A space in a building that is classified as Class 6 under Part 3A of the Building Code as amended from time to time "
    },
    {
      "type_of_space": "Unlisted Space: BCA Class 7 Open-air Car Park",
      "op_hrs_per_yr": 4500,
      "lamp_type": "A space in an open air car park that is classified as Class 7a under Part 3A of the Building Code as amended from time to time"
    },
    {
      "type_of_space": "Unlisted Space: BCA Class 7 Enclosed Car Park",
      "op_hrs_per_yr": 7000,
      "lamp_type": "A space in a car park (other than an open air car park) that is classified as Class 7a under Part 3A of the Building Code as amended from time to time"
    },
    {
      "type_of_space": "Unlisted Space: BCA Class 7 (e.g. Warehouse or Wholesale premises)",
      "op_hrs_per_yr": 5000,
      "lamp_type": "A space in a building that is classified as Class 7b under Part 3A of the Building Code as amended from time to time"
    },
    {
      "type_of_space": "Unlisted Space: BCA Class 8 Division 'C' Manufacturing (e.g.  Factory)  ",
      "op_hrs_per_yr": 5000,
      "lamp_type": "A space in a laboratory or building that is classified as Class 8 under Part 3A of the Building Code as amended from time to time and that is also classified as Division C in the Australian and New Zealand Standard Industrial Classification issued on 26 June 2013"
    },
    {
      "type_of_space": "Unlisted Space: BCA Class 8 NON-Division 'C' (e.g.  Laboratory or factory - Non Manufacturing  (i.e. sawmill) ",
      "op_hrs_per_yr": 3000,
      "lamp_type": "A space in a laboratory or building that is classified as Class 8 under Part 3A of the Building Code as amended from time to time and that is not classified as Division C in the Australian and New Zealand Standard Industrial Classification issued on 26 June 2013"
    },
    {
      "type_of_space": "Unlisted Space: BCA Class 9A (e.g. Hospital, day surgery or similar healthcare building)",
      "op_hrs_per_yr": 6000,
      "lamp_type": "A space in a building that is classified as Class 9a under Part 3A of the Building Code as amended from time to time  "
    },
    {
      "type_of_space": "Unlisted Space: BCA Class 9B (e.g.School, Library, Church, Theatre, etc.)  ",
      "op_hrs_per_yr": 2000,
      "lamp_type": "A space in a building that is classified as Class 9b under Part 3A of the Building Code as amended from time to time"
    },
    {
      "type_of_space": "Unlisted Space: BCA Class 9C (e.g. Aged care facility - excluding detached retirement units)",
      "op_hrs_per_yr": 6000,
      "lamp_type": "A space in a building that is classified as Class 9c under Part 3A of the Building Code as amended from time to time "
    },
    {
      "type_of_space": "Unlisted Space: BCA Class 10A (e.g. Private Garage, Carport, Shed) ",
      "op_hrs_per_yr": 1000,
      "lamp_type": "A space in a building that is classified as Class 10a under Part 3A of the Building Code as amended from time to time"
    },
    {
      "type_of_space": "Unlisted Space: BCA Class 10B (e.g. A structure being a fence, mast, antenna, retaining or free standing wall, swimming pool, or the like)",
      "op_hrs_per_yr": 1000,
      "lamp_type": "A space in a building that is classified as Class 10b under Part 3A of the Building Code as amended from time to time"
    }
  ],
  "control_systems": [
    "No Control System",
    "Occupancy sensor that controls 1 to 2 luminaires",
    "Occupancy sensor that controls 3 to 6 luminaires",
    "Occupancy sensor that controls more than 6 luminaires",
    "Daylight-linked control",
    "Programmable dimmer",
    "Manual dimmer",
    "Occupancy Plus Daylight-linked Control (1-2 luminaires)",
    "Occupancy Plus Programmable Dimmer (1-2 luminaires) ",
    "Occupancy Plus Manual Dimmer (1-2 luminaires)",
    "Occupancy Plus Daylight-linked Control (3-6 luminaires)",
    "Occupancy Plus Programmable Dimmer (3-6 luminaires) ",
    "Occupancy Plus Manual Dimmer (3-6 luminaires)",
    "Daylight-linked Control Plus Programmable Dimmer (1-6 luminaires)",
    "Daylight-linked Control Plus Manual Dimmer (1-6 luminaires)",
    "Programmable dimmer Plus Manual Dimmer (1-6 luminaires)"
  ],
  "activity_types": [
    "Luminaire Replacement (baseline luminaire completely removed & replaced)",
    "Retrofit (Baseline lamp replaced and wiring kept intact, other than starter / capacitor)",
    "Modification (Baseline lamp replaced and legacy control gear removed / bypassed)",
    "Delamping (No more than half of baseline lamps & control gear removed from luminaires housing multiple lamps)",
    "Lighting Control Device (Control device ONLY installed)",
    "Luminaire Decommissioning (Full luminaire & control gear is removed)"
  ],
  "lamp_types": [
    "T8 or T12 linear fluorescent or circular fluorescent lamp with ballast (EEI of > B or magnetic with no EEI marked)",
    "T5 linear fluorescent lamp with T5 adaptor and magnetic ballast",
    "Compact fluorescent lamp with non-integral ballast (EEI of A or electronic with no EEI marked)",
    "Compact fluorescent lamp with non-integral ballast (EEI > B or magnetic ballast with no EEI marked)",
    "Compact fluorescent lamp with integral ballast",
    "Tungsten incandescent or halogen lamp (mains voltage)",
    "Tungsten incandescent or halogen lamp with ELC",
    "Metal halide lamp with magnetic ballast",
    "Metal halide lamp with electronic ballast",
    "Mercury vapour lamp with ballast",
    "High pressure sodium lamp with magnetic ballast",
    "LED lamp with integrated driver with no associated legacy ballast connected",
    "Non-integrated LED lamp with remote driver or ELC",
    "LED lamp with integrated driver, connected with a non-integral legacy ballast used for a T8 or T12 linear or circular fluorescent lamp, marked with EEI of A or electronic ballast with no EEI marked ",
    "LED lamp with integrated driver, connected with a non-integral legacy ballast used for a T8 or T12 linear or circular fluorescent lamp, marked with EEI of > B or magnetic ballast with no EEI marked",
    "LED lamp with integrated driver, connected with a legacy ballast used for a T5 linear or circular fluorescent lamp",
    "LED lamp with integrated driver, connected with a legacy ballast used for a CFL, marked with EEI of A or electronic ballast with no EEI marked",
    "LED lamp with integrated driver, connected with a legacy ballast used for a CFL, marked with an EEI of > B or a magnetic ballast with no EEI marked",
    "LED integrated luminaire",
    "Non-integrated LED luminaire with remote driver",
    "LED lamp with integrated driver, connected with a legacy magnetic ballast used for HID lamps",
    "LED lamp with integrated driver, connected with a legacy electronic ballast used for HID lamps",
    "Induction lamp with integrated ballast",
    "Induction lamp with non-integrated ballast",
    "Self-ballasted Mercury Vapour lamp",
    "Other"
  ],
  "post_code_regional_vic": [
    {
      "post_code": 3000,
      "regional_vic": "Yes"
    },
    {
      "post_code": 3001,
      "regional_vic": "Yes"
    },
    {
      "post_code": 3002,
      "regional_vic": "Yes"
    },
    {
      "post_code": 3003,
      "regional_vic": "Yes"
    },
    {
      "post_code": 3004,
      "regional_vic": "Yes"
    },
    {
      "post_code": 3006,
      "regional_vic": "Yes"
    },
    {
      "post_code": 3008,
      "regional_vic": "Yes"
    },
    {
      "post_code": 3010,
      "regional_vic": "Yes"
    },
    {
      "post_code": 3011,
      "regional_vic": "Yes"
    },
    {
      "post_code": 3012,
      "regional_vic": "Yes"
    },
    {
      "post_code": 3013,
      "regional_vic": "Yes"
    },
    {
      "post_code": 3015,
      "regional_vic": "Yes"
    },
    {
      "post_code": 3016,
      "regional_vic": "Yes"
    },
    {
      "post_code": 3018,
      "regional_vic": "Yes"
    },
    {
      "post_code": 3019,
      "regional_vic": "Yes"
    },
    {
      "post_code": 3020,
      "regional_vic": "Yes"
    },
    {
      "post_code": 3021,
      "regional_vic": "Yes"
    },
    {
      "post_code": 3022,
      "regional_vic": "Yes"
    },
    {
      "post_code": 3023,
      "regional_vic": "Yes"
    },
    {
      "post_code": 3024,
      "regional_vic": "Yes"
    },
    {
      "post_code": 3025,
      "regional_vic": "Yes"
    },
    {
      "post_code": 3026,
      "regional_vic": "Yes"
    },
    {
      "post_code": 3027,
      "regional_vic": "Yes"
    },
    {
      "post_code": 3028,
      "regional_vic": "Yes"
    },
    {
      "post_code": 3029,
      "regional_vic": "Yes"
    },
    {
      "post_code": 3030,
      "regional_vic": "Yes"
    },
    {
      "post_code": 3031,
      "regional_vic": "Yes"
    },
    {
      "post_code": 3032,
      "regional_vic": "Yes"
    },
    {
      "post_code": 3033,
      "regional_vic": "Yes"
    },
    {
      "post_code": 3034,
      "regional_vic": "Yes"
    },
    {
      "post_code": 3036,
      "regional_vic": "Yes"
    },
    {
      "post_code": 3037,
      "regional_vic": "Yes"
    },
    {
      "post_code": 3038,
      "regional_vic": "Yes"
    },
    {
      "post_code": 3039,
      "regional_vic": "Yes"
    },
    {
      "post_code": 3040,
      "regional_vic": "Yes"
    },
    {
      "post_code": 3041,
      "regional_vic": "Yes"
    },
    {
      "post_code": 3042,
      "regional_vic": "Yes"
    },
    {
      "post_code": 3043,
      "regional_vic": "Yes"
    },
    {
      "post_code": 3044,
      "regional_vic": "Yes"
    },
    {
      "post_code": 3045,
      "regional_vic": "Yes"
    },
    {
      "post_code": 3046,
      "regional_vic": "Yes"
    },
    {
      "post_code": 3047,
      "regional_vic": "Yes"
    },
    {
      "post_code": 3048,
      "regional_vic": "Yes"
    },
    {
      "post_code": 3049,
      "regional_vic": "Yes"
    },
    {
      "post_code": 3050,
      "regional_vic": "Yes"
    },
    {
      "post_code": 3051,
      "regional_vic": "Yes"
    },
    {
      "post_code": 3052,
      "regional_vic": "Yes"
    },
    {
      "post_code": 3053,
      "regional_vic": "Yes"
    },
    {
      "post_code": 3054,
      "regional_vic": "Yes"
    },
    {
      "post_code": 3055,
      "regional_vic": "Yes"
    },
    {
      "post_code": 3056,
      "regional_vic": "Yes"
    },
    {
      "post_code": 3057,
      "regional_vic": "Yes"
    },
    {
      "post_code": 3058,
      "regional_vic": "Yes"
    },
    {
      "post_code": 3059,
      "regional_vic": "Yes"
    },
    {
      "post_code": 3060,
      "regional_vic": "Yes"
    },
    {
      "post_code": 3061,
      "regional_vic": "Yes"
    },
    {
      "post_code": 3062,
      "regional_vic": "Yes"
    },
    {
      "post_code": 3063,
      "regional_vic": "Yes"
    },
    {
      "post_code": 3064,
      "regional_vic": "Yes"
    },
    {
      "post_code": 3065,
      "regional_vic": "Yes"
    },
    {
      "post_code": 3066,
      "regional_vic": "Yes"
    },
    {
      "post_code": 3067,
      "regional_vic": "Yes"
    },
    {
      "post_code": 3068,
      "regional_vic": "Yes"
    },
    {
      "post_code": 3070,
      "regional_vic": "Yes"
    },
    {
      "post_code": 3071,
      "regional_vic": "Yes"
    },
    {
      "post_code": 3072,
      "regional_vic": "Yes"
    },
    {
      "post_code": 3073,
      "regional_vic": "Yes"
    },
    {
      "post_code": 3074,
      "regional_vic": "Yes"
    },
    {
      "post_code": 3075,
      "regional_vic": "Yes"
    },
    {
      "post_code": 3076,
      "regional_vic": "Yes"
    },
    {
      "post_code": 3078,
      "regional_vic": "Yes"
    },
    {
      "post_code": 3079,
      "regional_vic": "Yes"
    },
    {
      "post_code": 3081,
      "regional_vic": "Yes"
    },
    {
      "post_code": 3082,
      "regional_vic": "Yes"
    },
    {
      "post_code": 3083,
      "regional_vic": "Yes"
    },
    {
      "post_code": 3084,
      "regional_vic": "Yes"
    },
    {
      "post_code": 3085,
      "regional_vic": "Yes"
    },
    {
      "post_code": 3086,
      "regional_vic": "Yes"
    },
    {
      "post_code": 3087,
      "regional_vic": "Yes"
    },
    {
      "post_code": 3088,
      "regional_vic": "Yes"
    },
    {
      "post_code": 3089,
      "regional_vic": "Yes"
    },
    {
      "post_code": 3090,
      "regional_vic": "Yes"
    },
    {
      "post_code": 3091,
      "regional_vic": "Yes"
    },
    {
      "post_code": 3093,
      "regional_vic": "Yes"
    },
    {
      "post_code": 3094,
      "regional_vic": "Yes"
    },
    {
      "post_code": 3095,
      "regional_vic": "Yes"
    },
    {
      "post_code": 3096,
      "regional_vic": "Yes"
    },
    {
      "post_code": 3097,
      "regional_vic": "Yes"
    },
    {
      "post_code": 3099,
      "regional_vic": "Yes"
    },
    {
      "post_code": 3101,
      "regional_vic": "Yes"
    },
    {
      "post_code": 3102,
      "regional_vic": "Yes"
    },
    {
      "post_code": 3103,
      "regional_vic": "Yes"
    },
    {
      "post_code": 3104,
      "regional_vic": "Yes"
    },
    {
      "post_code": 3105,
      "regional_vic": "Yes"
    },
    {
      "post_code": 3106,
      "regional_vic": "Yes"
    },
    {
      "post_code": 3107,
      "regional_vic": "Yes"
    },
    {
      "post_code": 3108,
      "regional_vic": "Yes"
    },
    {
      "post_code": 3109,
      "regional_vic": "Yes"
    },
    {
      "post_code": 3111,
      "regional_vic": "Yes"
    },
    {
      "post_code": 3113,
      "regional_vic": "Yes"
    },
    {
      "post_code": 3114,
      "regional_vic": "Yes"
    },
    {
      "post_code": 3115,
      "regional_vic": "Yes"
    },
    {
      "post_code": 3116,
      "regional_vic": "Yes"
    },
    {
      "post_code": 3121,
      "regional_vic": "Yes"
    },
    {
      "post_code": 3122,
      "regional_vic": "Yes"
    },
    {
      "post_code": 3123,
      "regional_vic": "Yes"
    },
    {
      "post_code": 3124,
      "regional_vic": "Yes"
    },
    {
      "post_code": 3125,
      "regional_vic": "Yes"
    },
    {
      "post_code": 3126,
      "regional_vic": "Yes"
    },
    {
      "post_code": 3127,
      "regional_vic": "Yes"
    },
    {
      "post_code": 3128,
      "regional_vic": "Yes"
    },
    {
      "post_code": 3129,
      "regional_vic": "Yes"
    },
    {
      "post_code": 3130,
      "regional_vic": "Yes"
    },
    {
      "post_code": 3131,
      "regional_vic": "Yes"
    },
    {
      "post_code": 3132,
      "regional_vic": "Yes"
    },
    {
      "post_code": 3133,
      "regional_vic": "Yes"
    },
    {
      "post_code": 3134,
      "regional_vic": "Yes"
    },
    {
      "post_code": 3135,
      "regional_vic": "Yes"
    },
    {
      "post_code": 3136,
      "regional_vic": "Yes"
    },
    {
      "post_code": 3137,
      "regional_vic": "Yes"
    },
    {
      "post_code": 3138,
      "regional_vic": "Yes"
    },
    {
      "post_code": 3139,
      "regional_vic": "Yes"
    },
    {
      "post_code": 3140,
      "regional_vic": "Yes"
    },
    {
      "post_code": 3141,
      "regional_vic": "Yes"
    },
    {
      "post_code": 3142,
      "regional_vic": "Yes"
    },
    {
      "post_code": 3143,
      "regional_vic": "Yes"
    },
    {
      "post_code": 3144,
      "regional_vic": "Yes"
    },
    {
      "post_code": 3145,
      "regional_vic": "Yes"
    },
    {
      "post_code": 3146,
      "regional_vic": "Yes"
    },
    {
      "post_code": 3147,
      "regional_vic": "Yes"
    },
    {
      "post_code": 3148,
      "regional_vic": "Yes"
    },
    {
      "post_code": 3149,
      "regional_vic": "Yes"
    },
    {
      "post_code": 3150,
      "regional_vic": "Yes"
    },
    {
      "post_code": 3151,
      "regional_vic": "Yes"
    },
    {
      "post_code": 3152,
      "regional_vic": "Yes"
    },
    {
      "post_code": 3153,
      "regional_vic": "Yes"
    },
    {
      "post_code": 3154,
      "regional_vic": "Yes"
    },
    {
      "post_code": 3155,
      "regional_vic": "Yes"
    },
    {
      "post_code": 3156,
      "regional_vic": "Yes"
    },
    {
      "post_code": 3158,
      "regional_vic": "Yes"
    },
    {
      "post_code": 3159,
      "regional_vic": "Yes"
    },
    {
      "post_code": 3160,
      "regional_vic": "Yes"
    },
    {
      "post_code": 3161,
      "regional_vic": "Yes"
    },
    {
      "post_code": 3162,
      "regional_vic": "Yes"
    },
    {
      "post_code": 3163,
      "regional_vic": "Yes"
    },
    {
      "post_code": 3164,
      "regional_vic": "Yes"
    },
    {
      "post_code": 3165,
      "regional_vic": "Yes"
    },
    {
      "post_code": 3166,
      "regional_vic": "Yes"
    },
    {
      "post_code": 3167,
      "regional_vic": "Yes"
    },
    {
      "post_code": 3168,
      "regional_vic": "Yes"
    },
    {
      "post_code": 3169,
      "regional_vic": "Yes"
    },
    {
      "post_code": 3170,
      "regional_vic": "Yes"
    },
    {
      "post_code": 3171,
      "regional_vic": "Yes"
    },
    {
      "post_code": 3172,
      "regional_vic": "Yes"
    },
    {
      "post_code": 3173,
      "regional_vic": "Yes"
    },
    {
      "post_code": 3174,
      "regional_vic": "Yes"
    },
    {
      "post_code": 3175,
      "regional_vic": "Yes"
    },
    {
      "post_code": 3176,
      "regional_vic": "Yes"
    },
    {
      "post_code": 3177,
      "regional_vic": "Yes"
    },
    {
      "post_code": 3178,
      "regional_vic": "Yes"
    },
    {
      "post_code": 3179,
      "regional_vic": "Yes"
    },
    {
      "post_code": 3180,
      "regional_vic": "Yes"
    },
    {
      "post_code": 3181,
      "regional_vic": "Yes"
    },
    {
      "post_code": 3182,
      "regional_vic": "Yes"
    },
    {
      "post_code": 3183,
      "regional_vic": "Yes"
    },
    {
      "post_code": 3184,
      "regional_vic": "Yes"
    },
    {
      "post_code": 3185,
      "regional_vic": "Yes"
    },
    {
      "post_code": 3186,
      "regional_vic": "Yes"
    },
    {
      "post_code": 3187,
      "regional_vic": "Yes"
    },
    {
      "post_code": 3188,
      "regional_vic": "Yes"
    },
    {
      "post_code": 3189,
      "regional_vic": "Yes"
    },
    {
      "post_code": 3190,
      "regional_vic": "Yes"
    },
    {
      "post_code": 3191,
      "regional_vic": "Yes"
    },
    {
      "post_code": 3192,
      "regional_vic": "Yes"
    },
    {
      "post_code": 3193,
      "regional_vic": "Yes"
    },
    {
      "post_code": 3194,
      "regional_vic": "Yes"
    },
    {
      "post_code": 3195,
      "regional_vic": "Yes"
    },
    {
      "post_code": 3196,
      "regional_vic": "Yes"
    },
    {
      "post_code": 3197,
      "regional_vic": "Yes"
    },
    {
      "post_code": 3198,
      "regional_vic": "Yes"
    },
    {
      "post_code": 3199,
      "regional_vic": "Yes"
    },
    {
      "post_code": 3200,
      "regional_vic": "Yes"
    },
    {
      "post_code": 3201,
      "regional_vic": "Yes"
    },
    {
      "post_code": 3202,
      "regional_vic": "Yes"
    },
    {
      "post_code": 3204,
      "regional_vic": "Yes"
    },
    {
      "post_code": 3205,
      "regional_vic": "Yes"
    },
    {
      "post_code": 3206,
      "regional_vic": "Yes"
    },
    {
      "post_code": 3207,
      "regional_vic": "Yes"
    },
    {
      "post_code": 3211,
      "regional_vic": "Yes"
    },
    {
      "post_code": 3212,
      "regional_vic": "Yes"
    },
    {
      "post_code": 3213,
      "regional_vic": "No"
    },
    {
      "post_code": 3214,
      "regional_vic": "Yes"
    },
    {
      "post_code": 3215,
      "regional_vic": "Yes"
    },
    {
      "post_code": 3216,
      "regional_vic": "Yes"
    },
    {
      "post_code": 3217,
      "regional_vic": "Yes"
    },
    {
      "post_code": 3218,
      "regional_vic": "Yes"
    },
    {
      "post_code": 3219,
      "regional_vic": "Yes"
    },
    {
      "post_code": 3220,
      "regional_vic": "Yes"
    },
    {
      "post_code": 3221,
      "regional_vic": "Yes"
    },
    {
      "post_code": 3222,
      "regional_vic": "Yes"
    },
    {
      "post_code": 3223,
      "regional_vic": "Yes"
    },
    {
      "post_code": 3224,
      "regional_vic": "Yes"
    },
    {
      "post_code": 3225,
      "regional_vic": "Yes"
    },
    {
      "post_code": 3226,
      "regional_vic": "Yes"
    },
    {
      "post_code": 3227,
      "regional_vic": "Yes"
    },
    {
      "post_code": 3228,
      "regional_vic": "Yes"
    },
    {
      "post_code": 3230,
      "regional_vic": "Yes"
    },
    {
      "post_code": 3231,
      "regional_vic": "Yes"
    },
    {
      "post_code": 3232,
      "regional_vic": "No"
    },
    {
      "post_code": 3233,
      "regional_vic": "No"
    },
    {
      "post_code": 3234,
      "regional_vic": "No"
    },
    {
      "post_code": 3235,
      "regional_vic": "No"
    },
    {
      "post_code": 3236,
      "regional_vic": "No"
    },
    {
      "post_code": 3237,
      "regional_vic": "No"
    },
    {
      "post_code": 3238,
      "regional_vic": "No"
    },
    {
      "post_code": 3239,
      "regional_vic": "No"
    },
    {
      "post_code": 3240,
      "regional_vic": "No"
    },
    {
      "post_code": 3241,
      "regional_vic": "No"
    },
    {
      "post_code": 3242,
      "regional_vic": "No"
    },
    {
      "post_code": 3243,
      "regional_vic": "No"
    },
    {
      "post_code": 3249,
      "regional_vic": "Yes"
    },
    {
      "post_code": 3250,
      "regional_vic": "Yes"
    },
    {
      "post_code": 3251,
      "regional_vic": "Yes"
    },
    {
      "post_code": 3254,
      "regional_vic": "No"
    },
    {
      "post_code": 3260,
      "regional_vic": "Yes"
    },
    {
      "post_code": 3264,
      "regional_vic": "No"
    },
    {
      "post_code": 3265,
      "regional_vic": "Yes"
    },
    {
      "post_code": 3266,
      "regional_vic": "Yes"
    },
    {
      "post_code": 3267,
      "regional_vic": "No"
    },
    {
      "post_code": 3268,
      "regional_vic": "No"
    },
    {
      "post_code": 3269,
      "regional_vic": "No"
    },
    {
      "post_code": 3270,
      "regional_vic": "No"
    },
    {
      "post_code": 3271,
      "regional_vic": "No"
    },
    {
      "post_code": 3272,
      "regional_vic": "No"
    },
    {
      "post_code": 3273,
      "regional_vic": "No"
    },
    {
      "post_code": 3274,
      "regional_vic": "No"
    },
    {
      "post_code": 3275,
      "regional_vic": "No"
    },
    {
      "post_code": 3276,
      "regional_vic": "No"
    },
    {
      "post_code": 3277,
      "regional_vic": "Yes"
    },
    {
      "post_code": 3278,
      "regional_vic": "No"
    },
    {
      "post_code": 3279,
      "regional_vic": "No"
    },
    {
      "post_code": 3280,
      "regional_vic": "Yes"
    },
    {
      "post_code": 3281,
      "regional_vic": "No"
    },
    {
      "post_code": 3282,
      "regional_vic": "Yes"
    },
    {
      "post_code": 3283,
      "regional_vic": "No"
    },
    {
      "post_code": 3284,
      "regional_vic": "Yes"
    },
    {
      "post_code": 3285,
      "regional_vic": "No"
    },
    {
      "post_code": 3286,
      "regional_vic": "No"
    },
    {
      "post_code": 3287,
      "regional_vic": "No"
    },
    {
      "post_code": 3289,
      "regional_vic": "No"
    },
    {
      "post_code": 3292,
      "regional_vic": "No"
    },
    {
      "post_code": 3293,
      "regional_vic": "No"
    },
    {
      "post_code": 3294,
      "regional_vic": "No"
    },
    {
      "post_code": 3300,
      "regional_vic": "Yes"
    },
    {
      "post_code": 3301,
      "regional_vic": "No"
    },
    {
      "post_code": 3302,
      "regional_vic": "No"
    },
    {
      "post_code": 3303,
      "regional_vic": "No"
    },
    {
      "post_code": 3304,
      "regional_vic": "No"
    },
    {
      "post_code": 3305,
      "regional_vic": "Yes"
    },
    {
      "post_code": 3309,
      "regional_vic": "No"
    },
    {
      "post_code": 3310,
      "regional_vic": "No"
    },
    {
      "post_code": 3311,
      "regional_vic": "No"
    },
    {
      "post_code": 3312,
      "regional_vic": "No"
    },
    {
      "post_code": 3314,
      "regional_vic": "No"
    },
    {
      "post_code": 3315,
      "regional_vic": "No"
    },
    {
      "post_code": 3317,
      "regional_vic": "No"
    },
    {
      "post_code": 3318,
      "regional_vic": "No"
    },
    {
      "post_code": 3319,
      "regional_vic": "No"
    },
    {
      "post_code": 3321,
      "regional_vic": "No"
    },
    {
      "post_code": 3322,
      "regional_vic": "No"
    },
    {
      "post_code": 3323,
      "regional_vic": "No"
    },
    {
      "post_code": 3324,
      "regional_vic": "No"
    },
    {
      "post_code": 3325,
      "regional_vic": "No"
    },
    {
      "post_code": 3328,
      "regional_vic": "No"
    },
    {
      "post_code": 3329,
      "regional_vic": "No"
    },
    {
      "post_code": 3330,
      "regional_vic": "No"
    },
    {
      "post_code": 3331,
      "regional_vic": "No"
    },
    {
      "post_code": 3332,
      "regional_vic": "No"
    },
    {
      "post_code": 3333,
      "regional_vic": "No"
    },
    {
      "post_code": 3334,
      "regional_vic": "No"
    },
    {
      "post_code": 3335,
      "regional_vic": "Yes"
    },
    {
      "post_code": 3336,
      "regional_vic": "Yes"
    },
    {
      "post_code": 3337,
      "regional_vic": "Yes"
    },
    {
      "post_code": 3338,
      "regional_vic": "Yes"
    },
    {
      "post_code": 3340,
      "regional_vic": "Yes"
    },
    {
      "post_code": 3341,
      "regional_vic": "No"
    },
    {
      "post_code": 3342,
      "regional_vic": "Yes"
    },
    {
      "post_code": 3345,
      "regional_vic": "No"
    },
    {
      "post_code": 3350,
      "regional_vic": "Yes"
    },
    {
      "post_code": 3351,
      "regional_vic": "No"
    },
    {
      "post_code": 3352,
      "regional_vic": "Yes"
    },
    {
      "post_code": 3353,
      "regional_vic": "No"
    },
    {
      "post_code": 3354,
      "regional_vic": "No"
    },
    {
      "post_code": 3355,
      "regional_vic": "Yes"
    },
    {
      "post_code": 3356,
      "regional_vic": "Yes"
    },
    {
      "post_code": 3357,
      "regional_vic": "Yes"
    },
    {
      "post_code": 3358,
      "regional_vic": "Yes"
    },
    {
      "post_code": 3360,
      "regional_vic": "No"
    },
    {
      "post_code": 3361,
      "regional_vic": "No"
    },
    {
      "post_code": 3363,
      "regional_vic": "Yes"
    },
    {
      "post_code": 3364,
      "regional_vic": "Yes"
    },
    {
      "post_code": 3370,
      "regional_vic": "No"
    },
    {
      "post_code": 3371,
      "regional_vic": "No"
    },
    {
      "post_code": 3373,
      "regional_vic": "No"
    },
    {
      "post_code": 3374,
      "regional_vic": "No"
    },
    {
      "post_code": 3375,
      "regional_vic": "No"
    },
    {
      "post_code": 3377,
      "regional_vic": "Yes"
    },
    {
      "post_code": 3378,
      "regional_vic": "No"
    },
    {
      "post_code": 3379,
      "regional_vic": "No"
    },
    {
      "post_code": 3380,
      "regional_vic": "Yes"
    },
    {
      "post_code": 3381,
      "regional_vic": "No"
    },
    {
      "post_code": 3384,
      "regional_vic": "No"
    },
    {
      "post_code": 3385,
      "regional_vic": "No"
    },
    {
      "post_code": 3387,
      "regional_vic": "No"
    },
    {
      "post_code": 3388,
      "regional_vic": "No"
    },
    {
      "post_code": 3390,
      "regional_vic": "No"
    },
    {
      "post_code": 3391,
      "regional_vic": "No"
    },
    {
      "post_code": 3392,
      "regional_vic": "No"
    },
    {
      "post_code": 3393,
      "regional_vic": "No"
    },
    {
      "post_code": 3395,
      "regional_vic": "No"
    },
    {
      "post_code": 3396,
      "regional_vic": "No"
    },
    {
      "post_code": 3400,
      "regional_vic": "Yes"
    },
    {
      "post_code": 3401,
      "regional_vic": "Yes"
    },
    {
      "post_code": 3402,
      "regional_vic": "Yes"
    },
    {
      "post_code": 3407,
      "regional_vic": "No"
    },
    {
      "post_code": 3409,
      "regional_vic": "No"
    },
    {
      "post_code": 3412,
      "regional_vic": "No"
    },
    {
      "post_code": 3413,
      "regional_vic": "No"
    },
    {
      "post_code": 3414,
      "regional_vic": "No"
    },
    {
      "post_code": 3415,
      "regional_vic": "No"
    },
    {
      "post_code": 3418,
      "regional_vic": "No"
    },
    {
      "post_code": 3419,
      "regional_vic": "No"
    },
    {
      "post_code": 3420,
      "regional_vic": "No"
    },
    {
      "post_code": 3423,
      "regional_vic": "No"
    },
    {
      "post_code": 3424,
      "regional_vic": "No"
    },
    {
      "post_code": 3427,
      "regional_vic": "Yes"
    },
    {
      "post_code": 3428,
      "regional_vic": "Yes"
    },
    {
      "post_code": 3429,
      "regional_vic": "Yes"
    },
    {
      "post_code": 3430,
      "regional_vic": "No"
    },
    {
      "post_code": 3431,
      "regional_vic": "Yes"
    },
    {
      "post_code": 3432,
      "regional_vic": "No"
    },
    {
      "post_code": 3433,
      "regional_vic": "No"
    },
    {
      "post_code": 3434,
      "regional_vic": "Yes"
    },
    {
      "post_code": 3435,
      "regional_vic": "Yes"
    },
    {
      "post_code": 3437,
      "regional_vic": "Yes"
    },
    {
      "post_code": 3438,
      "regional_vic": "Yes"
    },
    {
      "post_code": 3440,
      "regional_vic": "Yes"
    },
    {
      "post_code": 3441,
      "regional_vic": "Yes"
    },
    {
      "post_code": 3442,
      "regional_vic": "Yes"
    },
    {
      "post_code": 3444,
      "regional_vic": "Yes"
    },
    {
      "post_code": 3446,
      "regional_vic": "No"
    },
    {
      "post_code": 3447,
      "regional_vic": "No"
    },
    {
      "post_code": 3448,
      "regional_vic": "No"
    },
    {
      "post_code": 3450,
      "regional_vic": "Yes"
    },
    {
      "post_code": 3451,
      "regional_vic": "Yes"
    },
    {
      "post_code": 3453,
      "regional_vic": "No"
    },
    {
      "post_code": 3458,
      "regional_vic": "No"
    },
    {
      "post_code": 3460,
      "regional_vic": "Yes"
    },
    {
      "post_code": 3461,
      "regional_vic": "Yes"
    },
    {
      "post_code": 3462,
      "regional_vic": "No"
    },
    {
      "post_code": 3463,
      "regional_vic": "No"
    },
    {
      "post_code": 3464,
      "regional_vic": "Yes"
    },
    {
      "post_code": 3465,
      "regional_vic": "Yes"
    },
    {
      "post_code": 3467,
      "regional_vic": "No"
    },
    {
      "post_code": 3468,
      "regional_vic": "No"
    },
    {
      "post_code": 3469,
      "regional_vic": "No"
    },
    {
      "post_code": 3472,
      "regional_vic": "No"
    },
    {
      "post_code": 3475,
      "regional_vic": "No"
    },
    {
      "post_code": 3477,
      "regional_vic": "No"
    },
    {
      "post_code": 3478,
      "regional_vic": "No"
    },
    {
      "post_code": 3480,
      "regional_vic": "No"
    },
    {
      "post_code": 3482,
      "regional_vic": "No"
    },
    {
      "post_code": 3483,
      "regional_vic": "No"
    },
    {
      "post_code": 3485,
      "regional_vic": "No"
    },
    {
      "post_code": 3487,
      "regional_vic": "No"
    },
    {
      "post_code": 3488,
      "regional_vic": "No"
    },
    {
      "post_code": 3489,
      "regional_vic": "No"
    },
    {
      "post_code": 3490,
      "regional_vic": "No"
    },
    {
      "post_code": 3491,
      "regional_vic": "No"
    },
    {
      "post_code": 3494,
      "regional_vic": "Yes"
    },
    {
      "post_code": 3496,
      "regional_vic": "Yes"
    },
    {
      "post_code": 3498,
      "regional_vic": "Yes"
    },
    {
      "post_code": 3500,
      "regional_vic": "Yes"
    },
    {
      "post_code": 3501,
      "regional_vic": "Yes"
    },
    {
      "post_code": 3502,
      "regional_vic": "Yes"
    },
    {
      "post_code": 3505,
      "regional_vic": "Yes"
    },
    {
      "post_code": 3506,
      "regional_vic": "No"
    },
    {
      "post_code": 3507,
      "regional_vic": "No"
    },
    {
      "post_code": 3509,
      "regional_vic": "No"
    },
    {
      "post_code": 3512,
      "regional_vic": "No"
    },
    {
      "post_code": 3515,
      "regional_vic": "No"
    },
    {
      "post_code": 3516,
      "regional_vic": "No"
    },
    {
      "post_code": 3517,
      "regional_vic": "No"
    },
    {
      "post_code": 3518,
      "regional_vic": "No"
    },
    {
      "post_code": 3520,
      "regional_vic": "No"
    },
    {
      "post_code": 3521,
      "regional_vic": "No"
    },
    {
      "post_code": 3522,
      "regional_vic": "No"
    },
    {
      "post_code": 3523,
      "regional_vic": "No"
    },
    {
      "post_code": 3525,
      "regional_vic": "No"
    },
    {
      "post_code": 3527,
      "regional_vic": "No"
    },
    {
      "post_code": 3529,
      "regional_vic": "No"
    },
    {
      "post_code": 3530,
      "regional_vic": "No"
    },
    {
      "post_code": 3531,
      "regional_vic": "No"
    },
    {
      "post_code": 3533,
      "regional_vic": "No"
    },
    {
      "post_code": 3537,
      "regional_vic": "No"
    },
    {
      "post_code": 3540,
      "regional_vic": "No"
    },
    {
      "post_code": 3542,
      "regional_vic": "No"
    },
    {
      "post_code": 3544,
      "regional_vic": "No"
    },
    {
      "post_code": 3546,
      "regional_vic": "No"
    },
    {
      "post_code": 3549,
      "regional_vic": "No"
    },
    {
      "post_code": 3550,
      "regional_vic": "Yes"
    },
    {
      "post_code": 3551,
      "regional_vic": "Yes"
    },
    {
      "post_code": 3552,
      "regional_vic": "No"
    },
    {
      "post_code": 3554,
      "regional_vic": "No"
    },
    {
      "post_code": 3555,
      "regional_vic": "Yes"
    },
    {
      "post_code": 3556,
      "regional_vic": "Yes"
    },
    {
      "post_code": 3557,
      "regional_vic": "No"
    },
    {
      "post_code": 3558,
      "regional_vic": "No"
    },
    {
      "post_code": 3559,
      "regional_vic": "No"
    },
    {
      "post_code": 3561,
      "regional_vic": "Yes"
    },
    {
      "post_code": 3562,
      "regional_vic": "No"
    },
    {
      "post_code": 3563,
      "regional_vic": "Yes"
    },
    {
      "post_code": 3564,
      "regional_vic": "Yes"
    },
    {
      "post_code": 3565,
      "regional_vic": "No"
    },
    {
      "post_code": 3566,
      "regional_vic": "Yes"
    },
    {
      "post_code": 3567,
      "regional_vic": "No"
    },
    {
      "post_code": 3568,
      "regional_vic": "No"
    },
    {
      "post_code": 3570,
      "regional_vic": "No"
    },
    {
      "post_code": 3571,
      "regional_vic": "No"
    },
    {
      "post_code": 3572,
      "regional_vic": "No"
    },
    {
      "post_code": 3573,
      "regional_vic": "No"
    },
    {
      "post_code": 3575,
      "regional_vic": "No"
    },
    {
      "post_code": 3576,
      "regional_vic": "No"
    },
    {
      "post_code": 3579,
      "regional_vic": "No"
    },
    {
      "post_code": 3580,
      "regional_vic": "No"
    },
    {
      "post_code": 3581,
      "regional_vic": "No"
    },
    {
      "post_code": 3583,
      "regional_vic": "No"
    },
    {
      "post_code": 3584,
      "regional_vic": "No"
    },
    {
      "post_code": 3585,
      "regional_vic": "No"
    },
    {
      "post_code": 3586,
      "regional_vic": "No"
    },
    {
      "post_code": 3588,
      "regional_vic": "No"
    },
    {
      "post_code": 3589,
      "regional_vic": "No"
    },
    {
      "post_code": 3590,
      "regional_vic": "No"
    },
    {
      "post_code": 3591,
      "regional_vic": "No"
    },
    {
      "post_code": 3594,
      "regional_vic": "No"
    },
    {
      "post_code": 3595,
      "regional_vic": "No"
    },
    {
      "post_code": 3596,
      "regional_vic": "No"
    },
    {
      "post_code": 3597,
      "regional_vic": "No"
    },
    {
      "post_code": 3599,
      "regional_vic": "No"
    },
    {
      "post_code": 3607,
      "regional_vic": "No"
    },
    {
      "post_code": 3608,
      "regional_vic": "No"
    },
    {
      "post_code": 3610,
      "regional_vic": "Yes"
    },
    {
      "post_code": 3612,
      "regional_vic": "No"
    },
    {
      "post_code": 3614,
      "regional_vic": "No"
    },
    {
      "post_code": 3616,
      "regional_vic": "Yes"
    },
    {
      "post_code": 3617,
      "regional_vic": "No"
    },
    {
      "post_code": 3618,
      "regional_vic": "Yes"
    },
    {
      "post_code": 3619,
      "regional_vic": "No"
    },
    {
      "post_code": 3620,
      "regional_vic": "Yes"
    },
    {
      "post_code": 3621,
      "regional_vic": "Yes"
    },
    {
      "post_code": 3622,
      "regional_vic": "No"
    },
    {
      "post_code": 3623,
      "regional_vic": "Yes"
    },
    {
      "post_code": 3624,
      "regional_vic": "Yes"
    },
    {
      "post_code": 3629,
      "regional_vic": "Yes"
    },
    {
      "post_code": 3630,
      "regional_vic": "Yes"
    },
    {
      "post_code": 3631,
      "regional_vic": "Yes"
    },
    {
      "post_code": 3632,
      "regional_vic": "No"
    },
    {
      "post_code": 3633,
      "regional_vic": "No"
    },
    {
      "post_code": 3634,
      "regional_vic": "No"
    },
    {
      "post_code": 3635,
      "regional_vic": "No"
    },
    {
      "post_code": 3636,
      "regional_vic": "Yes"
    },
    {
      "post_code": 3637,
      "regional_vic": "No"
    },
    {
      "post_code": 3638,
      "regional_vic": "No"
    },
    {
      "post_code": 3639,
      "regional_vic": "No"
    },
    {
      "post_code": 3640,
      "regional_vic": "Yes"
    },
    {
      "post_code": 3641,
      "regional_vic": "Yes"
    },
    {
      "post_code": 3643,
      "regional_vic": "Yes"
    },
    {
      "post_code": 3644,
      "regional_vic": "Yes"
    },
    {
      "post_code": 3646,
      "regional_vic": "No"
    },
    {
      "post_code": 3647,
      "regional_vic": "No"
    },
    {
      "post_code": 3649,
      "regional_vic": "No"
    },
    {
      "post_code": 3658,
      "regional_vic": "Yes"
    },
    {
      "post_code": 3659,
      "regional_vic": "Yes"
    },
    {
      "post_code": 3660,
      "regional_vic": "Yes"
    },
    {
      "post_code": 3661,
      "regional_vic": "No"
    },
    {
      "post_code": 3662,
      "regional_vic": "No"
    },
    {
      "post_code": 3663,
      "regional_vic": "No"
    },
    {
      "post_code": 3664,
      "regional_vic": "No"
    },
    {
      "post_code": 3665,
      "regional_vic": "No"
    },
    {
      "post_code": 3666,
      "regional_vic": "Yes"
    },
    {
      "post_code": 3669,
      "regional_vic": "No"
    },
    {
      "post_code": 3670,
      "regional_vic": "No"
    },
    {
      "post_code": 3671,
      "regional_vic": "No"
    },
    {
      "post_code": 3672,
      "regional_vic": "Yes"
    },
    {
      "post_code": 3673,
      "regional_vic": "No"
    },
    {
      "post_code": 3675,
      "regional_vic": "No"
    },
    {
      "post_code": 3676,
      "regional_vic": "No"
    },
    {
      "post_code": 3677,
      "regional_vic": "Yes"
    },
    {
      "post_code": 3678,
      "regional_vic": "Yes"
    },
    {
      "post_code": 3682,
      "regional_vic": "No"
    },
    {
      "post_code": 3683,
      "regional_vic": "Yes"
    },
    {
      "post_code": 3685,
      "regional_vic": "Yes"
    },
    {
      "post_code": 3687,
      "regional_vic": "Yes"
    },
    {
      "post_code": 3688,
      "regional_vic": "No"
    },
    {
      "post_code": 3689,
      "regional_vic": "No"
    },
    {
      "post_code": 3690,
      "regional_vic": "Yes"
    },
    {
      "post_code": 3691,
      "regional_vic": "Yes"
    },
    {
      "post_code": 3694,
      "regional_vic": "Yes"
    },
    {
      "post_code": 3695,
      "regional_vic": "No"
    },
    {
      "post_code": 3697,
      "regional_vic": "No"
    },
    {
      "post_code": 3698,
      "regional_vic": "No"
    },
    {
      "post_code": 3699,
      "regional_vic": "No"
    },
    {
      "post_code": 3700,
      "regional_vic": "No"
    },
    {
      "post_code": 3701,
      "regional_vic": "No"
    },
    {
      "post_code": 3704,
      "regional_vic": "No"
    },
    {
      "post_code": 3705,
      "regional_vic": "No"
    },
    {
      "post_code": 3707,
      "regional_vic": "No"
    },
    {
      "post_code": 3708,
      "regional_vic": "No"
    },
    {
      "post_code": 3709,
      "regional_vic": "No"
    },
    {
      "post_code": 3711,
      "regional_vic": "No"
    },
    {
      "post_code": 3712,
      "regional_vic": "No"
    },
    {
      "post_code": 3713,
      "regional_vic": "No"
    },
    {
      "post_code": 3714,
      "regional_vic": "No"
    },
    {
      "post_code": 3715,
      "regional_vic": "No"
    },
    {
      "post_code": 3717,
      "regional_vic": "No"
    },
    {
      "post_code": 3718,
      "regional_vic": "No"
    },
    {
      "post_code": 3719,
      "regional_vic": "No"
    },
    {
      "post_code": 3720,
      "regional_vic": "No"
    },
    {
      "post_code": 3722,
      "regional_vic": "No"
    },
    {
      "post_code": 3723,
      "regional_vic": "No"
    },
    {
      "post_code": 3724,
      "regional_vic": "No"
    },
    {
      "post_code": 3725,
      "regional_vic": "No"
    },
    {
      "post_code": 3726,
      "regional_vic": "No"
    },
    {
      "post_code": 3727,
      "regional_vic": "No"
    },
    {
      "post_code": 3728,
      "regional_vic": "No"
    },
    {
      "post_code": 3730,
      "regional_vic": "Yes"
    },
    {
      "post_code": 3732,
      "regional_vic": "No"
    },
    {
      "post_code": 3733,
      "regional_vic": "No"
    },
    {
      "post_code": 3735,
      "regional_vic": "No"
    },
    {
      "post_code": 3736,
      "regional_vic": "No"
    },
    {
      "post_code": 3737,
      "regional_vic": "No"
    },
    {
      "post_code": 3738,
      "regional_vic": "No"
    },
    {
      "post_code": 3739,
      "regional_vic": "No"
    },
    {
      "post_code": 3740,
      "regional_vic": "No"
    },
    {
      "post_code": 3741,
      "regional_vic": "No"
    },
    {
      "post_code": 3744,
      "regional_vic": "No"
    },
    {
      "post_code": 3746,
      "regional_vic": "No"
    },
    {
      "post_code": 3747,
      "regional_vic": "No"
    },
    {
      "post_code": 3749,
      "regional_vic": "No"
    },
    {
      "post_code": 3750,
      "regional_vic": "Yes"
    },
    {
      "post_code": 3751,
      "regional_vic": "Yes"
    },
    {
      "post_code": 3752,
      "regional_vic": "Yes"
    },
    {
      "post_code": 3753,
      "regional_vic": "Yes"
    },
    {
      "post_code": 3754,
      "regional_vic": "Yes"
    },
    {
      "post_code": 3755,
      "regional_vic": "Yes"
    },
    {
      "post_code": 3756,
      "regional_vic": "Yes"
    },
    {
      "post_code": 3757,
      "regional_vic": "Yes"
    },
    {
      "post_code": 3758,
      "regional_vic": "No"
    },
    {
      "post_code": 3759,
      "regional_vic": "Yes"
    },
    {
      "post_code": 3760,
      "regional_vic": "Yes"
    },
    {
      "post_code": 3761,
      "regional_vic": "Yes"
    },
    {
      "post_code": 3762,
      "regional_vic": "No"
    },
    {
      "post_code": 3763,
      "regional_vic": "Yes"
    },
    {
      "post_code": 3764,
      "regional_vic": "Yes"
    },
    {
      "post_code": 3765,
      "regional_vic": "Yes"
    },
    {
      "post_code": 3766,
      "regional_vic": "Yes"
    },
    {
      "post_code": 3767,
      "regional_vic": "Yes"
    },
    {
      "post_code": 3770,
      "regional_vic": "Yes"
    },
    {
      "post_code": 3775,
      "regional_vic": "Yes"
    },
    {
      "post_code": 3777,
      "regional_vic": "Yes"
    },
    {
      "post_code": 3778,
      "regional_vic": "No"
    },
    {
      "post_code": 3779,
      "regional_vic": "No"
    },
    {
      "post_code": 3781,
      "regional_vic": "Yes"
    },
    {
      "post_code": 3782,
      "regional_vic": "Yes"
    },
    {
      "post_code": 3783,
      "regional_vic": "Yes"
    },
    {
      "post_code": 3785,
      "regional_vic": "Yes"
    },
    {
      "post_code": 3786,
      "regional_vic": "Yes"
    },
    {
      "post_code": 3787,
      "regional_vic": "Yes"
    },
    {
      "post_code": 3788,
      "regional_vic": "Yes"
    },
    {
      "post_code": 3789,
      "regional_vic": "Yes"
    },
    {
      "post_code": 3791,
      "regional_vic": "Yes"
    },
    {
      "post_code": 3792,
      "regional_vic": "Yes"
    },
    {
      "post_code": 3793,
      "regional_vic": "Yes"
    },
    {
      "post_code": 3795,
      "regional_vic": "Yes"
    },
    {
      "post_code": 3796,
      "regional_vic": "Yes"
    },
    {
      "post_code": 3797,
      "regional_vic": "Yes"
    },
    {
      "post_code": 3799,
      "regional_vic": "Yes"
    },
    {
      "post_code": 3800,
      "regional_vic": "Yes"
    },
    {
      "post_code": 3802,
      "regional_vic": "Yes"
    },
    {
      "post_code": 3803,
      "regional_vic": "Yes"
    },
    {
      "post_code": 3804,
      "regional_vic": "Yes"
    },
    {
      "post_code": 3805,
      "regional_vic": "Yes"
    },
    {
      "post_code": 3806,
      "regional_vic": "Yes"
    },
    {
      "post_code": 3807,
      "regional_vic": "Yes"
    },
    {
      "post_code": 3808,
      "regional_vic": "Yes"
    },
    {
      "post_code": 3809,
      "regional_vic": "Yes"
    },
    {
      "post_code": 3810,
      "regional_vic": "Yes"
    },
    {
      "post_code": 3812,
      "regional_vic": "Yes"
    },
    {
      "post_code": 3813,
      "regional_vic": "Yes"
    },
    {
      "post_code": 3814,
      "regional_vic": "Yes"
    },
    {
      "post_code": 3815,
      "regional_vic": "Yes"
    },
    {
      "post_code": 3816,
      "regional_vic": "Yes"
    },
    {
      "post_code": 3818,
      "regional_vic": "Yes"
    },
    {
      "post_code": 3820,
      "regional_vic": "Yes"
    },
    {
      "post_code": 3821,
      "regional_vic": "No"
    },
    {
      "post_code": 3822,
      "regional_vic": "Yes"
    },
    {
      "post_code": 3823,
      "regional_vic": "Yes"
    },
    {
      "post_code": 3824,
      "regional_vic": "Yes"
    },
    {
      "post_code": 3825,
      "regional_vic": "Yes"
    },
    {
      "post_code": 3831,
      "regional_vic": "No"
    },
    {
      "post_code": 3832,
      "regional_vic": "No"
    },
    {
      "post_code": 3833,
      "regional_vic": "No"
    },
    {
      "post_code": 3835,
      "regional_vic": "No"
    },
    {
      "post_code": 3840,
      "regional_vic": "Yes"
    },
    {
      "post_code": 3841,
      "regional_vic": "No"
    },
    {
      "post_code": 3842,
      "regional_vic": "Yes"
    },
    {
      "post_code": 3844,
      "regional_vic": "Yes"
    },
    {
      "post_code": 3847,
      "regional_vic": "Yes"
    },
    {
      "post_code": 3850,
      "regional_vic": "Yes"
    },
    {
      "post_code": 3851,
      "regional_vic": "Yes"
    },
    {
      "post_code": 3852,
      "regional_vic": "Yes"
    },
    {
      "post_code": 3853,
      "regional_vic": "Yes"
    },
    {
      "post_code": 3854,
      "regional_vic": "No"
    },
    {
      "post_code": 3856,
      "regional_vic": "No"
    },
    {
      "post_code": 3857,
      "regional_vic": "No"
    },
    {
      "post_code": 3858,
      "regional_vic": "No"
    },
    {
      "post_code": 3859,
      "regional_vic": "No"
    },
    {
      "post_code": 3860,
      "regional_vic": "Yes"
    },
    {
      "post_code": 3862,
      "regional_vic": "No"
    },
    {
      "post_code": 3864,
      "regional_vic": "No"
    },
    {
      "post_code": 3865,
      "regional_vic": "No"
    },
    {
      "post_code": 3869,
      "regional_vic": "No"
    },
    {
      "post_code": 3870,
      "regional_vic": "No"
    },
    {
      "post_code": 3871,
      "regional_vic": "No"
    },
    {
      "post_code": 3873,
      "regional_vic": "No"
    },
    {
      "post_code": 3874,
      "regional_vic": "No"
    },
    {
      "post_code": 3875,
      "regional_vic": "Yes"
    },
    {
      "post_code": 3878,
      "regional_vic": "Yes"
    },
    {
      "post_code": 3880,
      "regional_vic": "Yes"
    },
    {
      "post_code": 3882,
      "regional_vic": "No"
    },
    {
      "post_code": 3885,
      "regional_vic": "No"
    },
    {
      "post_code": 3886,
      "regional_vic": "No"
    },
    {
      "post_code": 3887,
      "regional_vic": "No"
    },
    {
      "post_code": 3888,
      "regional_vic": "No"
    },
    {
      "post_code": 3889,
      "regional_vic": "No"
    },
    {
      "post_code": 3890,
      "regional_vic": "No"
    },
    {
      "post_code": 3891,
      "regional_vic": "No"
    },
    {
      "post_code": 3892,
      "regional_vic": "No"
    },
    {
      "post_code": 3893,
      "regional_vic": "No"
    },
    {
      "post_code": 3895,
      "regional_vic": "No"
    },
    {
      "post_code": 3896,
      "regional_vic": "No"
    },
    {
      "post_code": 3898,
      "regional_vic": "No"
    },
    {
      "post_code": 3900,
      "regional_vic": "No"
    },
    {
      "post_code": 3902,
      "regional_vic": "No"
    },
    {
      "post_code": 3903,
      "regional_vic": "No"
    },
    {
      "post_code": 3904,
      "regional_vic": "No"
    },
    {
      "post_code": 3909,
      "regional_vic": "No"
    },
    {
      "post_code": 3910,
      "regional_vic": "Yes"
    },
    {
      "post_code": 3911,
      "regional_vic": "Yes"
    },
    {
      "post_code": 3912,
      "regional_vic": "Yes"
    },
    {
      "post_code": 3913,
      "regional_vic": "Yes"
    },
    {
      "post_code": 3915,
      "regional_vic": "Yes"
    },
    {
      "post_code": 3916,
      "regional_vic": "Yes"
    },
    {
      "post_code": 3918,
      "regional_vic": "Yes"
    },
    {
      "post_code": 3919,
      "regional_vic": "Yes"
    },
    {
      "post_code": 3920,
      "regional_vic": "Yes"
    },
    {
      "post_code": 3921,
      "regional_vic": "Yes"
    },
    {
      "post_code": 3922,
      "regional_vic": "No"
    },
    {
      "post_code": 3923,
      "regional_vic": "No"
    },
    {
      "post_code": 3925,
      "regional_vic": "No"
    },
    {
      "post_code": 3926,
      "regional_vic": "Yes"
    },
    {
      "post_code": 3927,
      "regional_vic": "Yes"
    },
    {
      "post_code": 3928,
      "regional_vic": "Yes"
    },
    {
      "post_code": 3929,
      "regional_vic": "Yes"
    },
    {
      "post_code": 3930,
      "regional_vic": "Yes"
    },
    {
      "post_code": 3931,
      "regional_vic": "Yes"
    },
    {
      "post_code": 3933,
      "regional_vic": "Yes"
    },
    {
      "post_code": 3934,
      "regional_vic": "Yes"
    },
    {
      "post_code": 3936,
      "regional_vic": "Yes"
    },
    {
      "post_code": 3937,
      "regional_vic": "Yes"
    },
    {
      "post_code": 3938,
      "regional_vic": "Yes"
    },
    {
      "post_code": 3939,
      "regional_vic": "Yes"
    },
    {
      "post_code": 3940,
      "regional_vic": "Yes"
    },
    {
      "post_code": 3941,
      "regional_vic": "Yes"
    },
    {
      "post_code": 3942,
      "regional_vic": "Yes"
    },
    {
      "post_code": 3943,
      "regional_vic": "Yes"
    },
    {
      "post_code": 3944,
      "regional_vic": "Yes"
    },
    {
      "post_code": 3945,
      "regional_vic": "No"
    },
    {
      "post_code": 3946,
      "regional_vic": "No"
    },
    {
      "post_code": 3950,
      "regional_vic": "Yes"
    },
    {
      "post_code": 3951,
      "regional_vic": "No"
    },
    {
      "post_code": 3953,
      "regional_vic": "Yes"
    },
    {
      "post_code": 3954,
      "regional_vic": "No"
    },
    {
      "post_code": 3956,
      "regional_vic": "No"
    },
    {
      "post_code": 3957,
      "regional_vic": "No"
    },
    {
      "post_code": 3958,
      "regional_vic": "No"
    },
    {
      "post_code": 3959,
      "regional_vic": "No"
    },
    {
      "post_code": 3960,
      "regional_vic": "No"
    },
    {
      "post_code": 3962,
      "regional_vic": "No"
    },
    {
      "post_code": 3964,
      "regional_vic": "No"
    },
    {
      "post_code": 3965,
      "regional_vic": "No"
    },
    {
      "post_code": 3966,
      "regional_vic": "No"
    },
    {
      "post_code": 3967,
      "regional_vic": "No"
    },
    {
      "post_code": 3971,
      "regional_vic": "No"
    },
    {
      "post_code": 3975,
      "regional_vic": "Yes"
    },
    {
      "post_code": 3976,
      "regional_vic": "Yes"
    },
    {
      "post_code": 3977,
      "regional_vic": "Yes"
    },
    {
      "post_code": 3978,
      "regional_vic": "Yes"
    },
    {
      "post_code": 3979,
      "regional_vic": "No"
    },
    {
      "post_code": 3980,
      "regional_vic": "Yes"
    },
    {
      "post_code": 3981,
      "regional_vic": "Yes"
    },
    {
      "post_code": 3984,
      "regional_vic": "Yes"
    },
    {
      "post_code": 3987,
      "regional_vic": "Yes"
    },
    {
      "post_code": 3988,
      "regional_vic": "No"
    },
    {
      "post_code": 3990,
      "regional_vic": "No"
    },
    {
      "post_code": 3991,
      "regional_vic": "No"
    },
    {
      "post_code": 3992,
      "regional_vic": "No"
    },
    {
      "post_code": 3995,
      "regional_vic": "Yes"
    },
    {
      "post_code": 3996,
      "regional_vic": "Yes"
    }
  ]
}